[
    {
        "name": "doctrine/instantiator",
        "version": "1.3.0",
        "version_normalized": "1.3.0.0",
        "source": {
            "type": "git",
            "url": "https://github.com/doctrine/instantiator.git",
            "reference": "ae466f726242e637cebdd526a7d991b9433bacf1"
        },
        "dist": {
            "type": "zip",
            "url": "https://api.github.com/repos/doctrine/instantiator/zipball/ae466f726242e637cebdd526a7d991b9433bacf1",
            "reference": "ae466f726242e637cebdd526a7d991b9433bacf1",
            "shasum": ""
        },
        "require": {
            "php": "^7.1"
        },
        "require-dev": {
            "doctrine/coding-standard": "^6.0",
            "ext-pdo": "*",
            "ext-phar": "*",
            "phpbench/phpbench": "^0.13",
            "phpstan/phpstan-phpunit": "^0.11",
            "phpstan/phpstan-shim": "^0.11",
            "phpunit/phpunit": "^7.0"
        },
        "time": "2019-10-21T16:45:58+00:00",
        "type": "library",
        "extra": {
            "branch-alias": {
                "dev-master": "1.2.x-dev"
            }
        },
        "installation-source": "dist",
        "autoload": {
            "psr-4": {
                "Doctrine\\Instantiator\\": "src/Doctrine/Instantiator/"
            }
        },
        "notification-url": "https://packagist.org/downloads/",
        "license": [
            "MIT"
        ],
        "authors": [
            {
                "name": "Marco Pivetta",
                "email": "ocramius@gmail.com",
                "homepage": "http://ocramius.github.com/"
            }
        ],
        "description": "A small, lightweight utility to instantiate objects in PHP without invoking their constructors",
        "homepage": "https://www.doctrine-project.org/projects/instantiator.html",
        "keywords": [
            "constructor",
            "instantiate"
        ]
    },
    {
        "name": "mikey179/vfsstream",
        "version": "v1.1.0",
        "version_normalized": "1.1.0.0",
        "source": {
            "type": "git",
            "url": "https://github.com/bovigo/vfsStream.git",
            "reference": "fc0fe8f4d0b527254a2dc45f0c265567c881d07e"
        },
        "dist": {
            "type": "zip",
            "url": "https://api.github.com/repos/bovigo/vfsStream/zipball/fc0fe8f4d0b527254a2dc45f0c265567c881d07e",
            "reference": "fc0fe8f4d0b527254a2dc45f0c265567c881d07e",
            "shasum": ""
        },
        "require": {
            "php": ">=5.3.0"
        },
        "time": "2012-08-25T12:49:29+00:00",
        "type": "library",
        "installation-source": "dist",
        "autoload": {
            "psr-0": {
                "org\\bovigo\\vfs": "src/main/php"
            }
        },
        "notification-url": "https://packagist.org/downloads/",
        "license": [
            "BSD"
        ],
        "homepage": "http://vfs.bovigo.org/"
    },
    {
        "name": "myclabs/deep-copy",
        "version": "1.9.3",
        "version_normalized": "1.9.3.0",
        "source": {
            "type": "git",
            "url": "https://github.com/myclabs/DeepCopy.git",
            "reference": "007c053ae6f31bba39dfa19a7726f56e9763bbea"
        },
        "dist": {
            "type": "zip",
            "url": "https://api.github.com/repos/myclabs/DeepCopy/zipball/007c053ae6f31bba39dfa19a7726f56e9763bbea",
            "reference": "007c053ae6f31bba39dfa19a7726f56e9763bbea",
            "shasum": ""
        },
        "require": {
            "php": "^7.1"
        },
        "replace": {
            "myclabs/deep-copy": "self.version"
        },
        "require-dev": {
            "doctrine/collections": "^1.0",
            "doctrine/common": "^2.6",
            "phpunit/phpunit": "^7.1"
        },
        "time": "2019-08-09T12:45:53+00:00",
        "type": "library",
        "installation-source": "dist",
        "autoload": {
            "psr-4": {
                "DeepCopy\\": "src/DeepCopy/"
            },
            "files": [
                "src/DeepCopy/deep_copy.php"
            ]
        },
        "notification-url": "https://packagist.org/downloads/",
        "license": [
            "MIT"
        ],
        "description": "Create deep copies (clones) of your objects",
        "keywords": [
            "clone",
            "copy",
            "duplicate",
            "object",
            "object graph"
        ]
    },
    {
        "name": "paragonie/random_compat",
        "version": "v9.99.99",
        "version_normalized": "9.99.99.0",
        "source": {
            "type": "git",
            "url": "https://github.com/paragonie/random_compat.git",
            "reference": "84b4dfb120c6f9b4ff7b3685f9b8f1aa365a0c95"
        },
        "dist": {
            "type": "zip",
            "url": "https://api.github.com/repos/paragonie/random_compat/zipball/84b4dfb120c6f9b4ff7b3685f9b8f1aa365a0c95",
            "reference": "84b4dfb120c6f9b4ff7b3685f9b8f1aa365a0c95",
            "shasum": ""
        },
        "require": {
            "php": "^7"
        },
        "require-dev": {
            "phpunit/phpunit": "4.*|5.*",
            "vimeo/psalm": "^1"
        },
        "suggest": {
            "ext-libsodium": "Provides a modern crypto API that can be used to generate random bytes."
        },
        "time": "2018-07-02T15:55:56+00:00",
        "type": "library",
        "installation-source": "dist",
        "notification-url": "https://packagist.org/downloads/",
        "license": [
            "MIT"
        ],
        "authors": [
            {
                "name": "Paragon Initiative Enterprises",
                "email": "security@paragonie.com",
                "homepage": "https://paragonie.com"
            }
        ],
        "description": "PHP 5.x polyfill for random_bytes() and random_int() from PHP 7",
        "keywords": [
            "csprng",
            "polyfill",
            "pseudorandom",
            "random"
        ]
    },
    {
        "name": "paragonie/sodium_compat",
        "version": "v1.12.1",
        "version_normalized": "1.12.1.0",
        "source": {
            "type": "git",
            "url": "https://github.com/paragonie/sodium_compat.git",
            "reference": "063cae9b3a7323579063e7037720f5b52b56c178"
        },
        "dist": {
            "type": "zip",
            "url": "https://api.github.com/repos/paragonie/sodium_compat/zipball/063cae9b3a7323579063e7037720f5b52b56c178",
            "reference": "063cae9b3a7323579063e7037720f5b52b56c178",
            "shasum": ""
        },
        "require": {
            "paragonie/random_compat": ">=1",
            "php": "^5.2.4|^5.3|^5.4|^5.5|^5.6|^7|^8"
        },
        "require-dev": {
            "phpunit/phpunit": "^3|^4|^5|^6|^7"
        },
        "suggest": {
            "ext-libsodium": "PHP < 7.0: Better performance, password hashing (Argon2i), secure memory management (memzero), and better security.",
            "ext-sodium": "PHP >= 7.0: Better performance, password hashing (Argon2i), secure memory management (memzero), and better security."
        },
        "time": "2019-11-07T17:07:24+00:00",
        "type": "library",
        "installation-source": "dist",
        "autoload": {
            "files": [
                "autoload.php"
            ]
        },
        "notification-url": "https://packagist.org/downloads/",
        "license": [
            "ISC"
        ],
        "authors": [
            {
                "name": "Paragon Initiative Enterprises",
                "email": "security@paragonie.com"
            },
            {
                "name": "Frank Denis",
                "email": "jedisct1@pureftpd.org"
            }
        ],
        "description": "Pure PHP implementation of libsodium; uses the PHP extension if it exists",
        "keywords": [
            "Authentication",
            "BLAKE2b",
            "ChaCha20",
            "ChaCha20-Poly1305",
            "Chapoly",
            "Curve25519",
            "Ed25519",
            "EdDSA",
            "Edwards-curve Digital Signature Algorithm",
            "Elliptic Curve Diffie-Hellman",
            "Poly1305",
            "Pure-PHP cryptography",
            "RFC 7748",
            "RFC 8032",
            "Salpoly",
            "Salsa20",
            "X25519",
            "XChaCha20-Poly1305",
            "XSalsa20-Poly1305",
            "Xchacha20",
            "Xsalsa20",
            "aead",
            "cryptography",
            "ecdh",
            "elliptic curve",
            "elliptic curve cryptography",
            "encryption",
            "libsodium",
            "php",
            "public-key cryptography",
            "secret-key cryptography",
            "side-channel resistant"
        ]
    },
    {
        "name": "phpdocumentor/reflection-common",
        "version": "2.0.0",
        "version_normalized": "2.0.0.0",
        "source": {
            "type": "git",
            "url": "https://github.com/phpDocumentor/ReflectionCommon.git",
            "reference": "63a995caa1ca9e5590304cd845c15ad6d482a62a"
        },
        "dist": {
            "type": "zip",
            "url": "https://api.github.com/repos/phpDocumentor/ReflectionCommon/zipball/63a995caa1ca9e5590304cd845c15ad6d482a62a",
            "reference": "63a995caa1ca9e5590304cd845c15ad6d482a62a",
            "shasum": ""
        },
        "require": {
            "php": ">=7.1"
        },
        "require-dev": {
            "phpunit/phpunit": "~6"
        },
        "time": "2018-08-07T13:53:10+00:00",
        "type": "library",
        "extra": {
            "branch-alias": {
                "dev-master": "2.x-dev"
            }
        },
        "installation-source": "dist",
        "autoload": {
            "psr-4": {
                "phpDocumentor\\Reflection\\": "src/"
            }
        },
        "notification-url": "https://packagist.org/downloads/",
        "license": [
            "MIT"
        ],
        "authors": [
            {
                "name": "Jaap van Otterdijk",
                "email": "opensource@ijaap.nl"
            }
        ],
        "description": "Common reflection classes used by phpdocumentor to reflect the code structure",
        "homepage": "http://www.phpdoc.org",
        "keywords": [
            "FQSEN",
            "phpDocumentor",
            "phpdoc",
            "reflection",
            "static analysis"
        ]
    },
    {
        "name": "phpdocumentor/reflection-docblock",
        "version": "4.3.2",
        "version_normalized": "4.3.2.0",
        "source": {
            "type": "git",
            "url": "https://github.com/phpDocumentor/ReflectionDocBlock.git",
            "reference": "b83ff7cfcfee7827e1e78b637a5904fe6a96698e"
        },
        "dist": {
            "type": "zip",
            "url": "https://api.github.com/repos/phpDocumentor/ReflectionDocBlock/zipball/b83ff7cfcfee7827e1e78b637a5904fe6a96698e",
            "reference": "b83ff7cfcfee7827e1e78b637a5904fe6a96698e",
            "shasum": ""
        },
        "require": {
            "php": "^7.0",
            "phpdocumentor/reflection-common": "^1.0.0 || ^2.0.0",
            "phpdocumentor/type-resolver": "~0.4 || ^1.0.0",
            "webmozart/assert": "^1.0"
        },
        "require-dev": {
            "doctrine/instantiator": "^1.0.5",
            "mockery/mockery": "^1.0",
            "phpunit/phpunit": "^6.4"
        },
        "time": "2019-09-12T14:27:41+00:00",
        "type": "library",
        "extra": {
            "branch-alias": {
                "dev-master": "4.x-dev"
            }
        },
        "installation-source": "dist",
        "autoload": {
            "psr-4": {
                "phpDocumentor\\Reflection\\": [
                    "src/"
                ]
            }
        },
        "notification-url": "https://packagist.org/downloads/",
        "license": [
            "MIT"
        ],
        "authors": [
            {
                "name": "Mike van Riel",
                "email": "me@mikevanriel.com"
            }
        ],
        "description": "With this component, a library can provide support for annotations via DocBlocks or otherwise retrieve information that is embedded in a DocBlock."
    },
    {
        "name": "phpdocumentor/type-resolver",
        "version": "1.0.1",
        "version_normalized": "1.0.1.0",
        "source": {
            "type": "git",
            "url": "https://github.com/phpDocumentor/TypeResolver.git",
            "reference": "2e32a6d48972b2c1976ed5d8967145b6cec4a4a9"
        },
        "dist": {
            "type": "zip",
            "url": "https://api.github.com/repos/phpDocumentor/TypeResolver/zipball/2e32a6d48972b2c1976ed5d8967145b6cec4a4a9",
            "reference": "2e32a6d48972b2c1976ed5d8967145b6cec4a4a9",
            "shasum": ""
        },
        "require": {
            "php": "^7.1",
            "phpdocumentor/reflection-common": "^2.0"
        },
        "require-dev": {
            "ext-tokenizer": "^7.1",
            "mockery/mockery": "~1",
            "phpunit/phpunit": "^7.0"
        },
        "time": "2019-08-22T18:11:29+00:00",
        "type": "library",
        "extra": {
            "branch-alias": {
                "dev-master": "1.x-dev"
            }
        },
        "installation-source": "dist",
        "autoload": {
            "psr-4": {
                "phpDocumentor\\Reflection\\": "src"
            }
        },
        "notification-url": "https://packagist.org/downloads/",
        "license": [
            "MIT"
        ],
        "authors": [
            {
                "name": "Mike van Riel",
                "email": "me@mikevanriel.com"
            }
        ],
        "description": "A PSR-5 based resolver of Class names, Types and Structural Element Names"
    },
    {
        "name": "phpspec/prophecy",
        "version": "1.9.0",
        "version_normalized": "1.9.0.0",
        "source": {
            "type": "git",
            "url": "https://github.com/phpspec/prophecy.git",
            "reference": "f6811d96d97bdf400077a0cc100ae56aa32b9203"
        },
        "dist": {
            "type": "zip",
            "url": "https://api.github.com/repos/phpspec/prophecy/zipball/f6811d96d97bdf400077a0cc100ae56aa32b9203",
            "reference": "f6811d96d97bdf400077a0cc100ae56aa32b9203",
            "shasum": ""
        },
        "require": {
            "doctrine/instantiator": "^1.0.2",
            "php": "^5.3|^7.0",
            "phpdocumentor/reflection-docblock": "^2.0|^3.0.2|^4.0|^5.0",
            "sebastian/comparator": "^1.1|^2.0|^3.0",
            "sebastian/recursion-context": "^1.0|^2.0|^3.0"
        },
        "require-dev": {
            "phpspec/phpspec": "^2.5|^3.2",
            "phpunit/phpunit": "^4.8.35 || ^5.7 || ^6.5 || ^7.1"
        },
        "time": "2019-10-03T11:07:50+00:00",
        "type": "library",
        "extra": {
            "branch-alias": {
                "dev-master": "1.8.x-dev"
            }
        },
        "installation-source": "dist",
        "autoload": {
            "psr-4": {
                "Prophecy\\": "src/Prophecy"
            }
        },
        "notification-url": "https://packagist.org/downloads/",
        "license": [
            "MIT"
        ],
        "authors": [
            {
                "name": "Konstantin Kudryashov",
                "email": "ever.zet@gmail.com",
                "homepage": "http://everzet.com"
            },
            {
                "name": "Marcello Duarte",
                "email": "marcello.duarte@gmail.com"
            }
        ],
        "description": "Highly opinionated mocking framework for PHP 5.3+",
        "homepage": "https://github.com/phpspec/prophecy",
        "keywords": [
            "Double",
            "Dummy",
            "fake",
            "mock",
            "spy",
            "stub"
        ]
    },
    {
        "name": "phpunit/php-code-coverage",
        "version": "4.0.8",
        "version_normalized": "4.0.8.0",
        "source": {
            "type": "git",
            "url": "https://github.com/sebastianbergmann/php-code-coverage.git",
            "reference": "ef7b2f56815df854e66ceaee8ebe9393ae36a40d"
        },
        "dist": {
            "type": "zip",
            "url": "https://api.github.com/repos/sebastianbergmann/php-code-coverage/zipball/ef7b2f56815df854e66ceaee8ebe9393ae36a40d",
            "reference": "ef7b2f56815df854e66ceaee8ebe9393ae36a40d",
            "shasum": ""
        },
        "require": {
            "ext-dom": "*",
            "ext-xmlwriter": "*",
            "php": "^5.6 || ^7.0",
            "phpunit/php-file-iterator": "^1.3",
            "phpunit/php-text-template": "^1.2",
            "phpunit/php-token-stream": "^1.4.2 || ^2.0",
            "sebastian/code-unit-reverse-lookup": "^1.0",
            "sebastian/environment": "^1.3.2 || ^2.0",
            "sebastian/version": "^1.0 || ^2.0"
        },
        "require-dev": {
            "ext-xdebug": "^2.1.4",
            "phpunit/phpunit": "^5.7"
        },
        "suggest": {
            "ext-xdebug": "^2.5.1"
        },
        "time": "2017-04-02T07:44:40+00:00",
        "type": "library",
        "extra": {
            "branch-alias": {
                "dev-master": "4.0.x-dev"
            }
        },
        "installation-source": "dist",
        "autoload": {
            "classmap": [
                "src/"
            ]
        },
        "notification-url": "https://packagist.org/downloads/",
        "license": [
            "BSD-3-Clause"
        ],
        "authors": [
            {
                "name": "Sebastian Bergmann",
                "email": "sb@sebastian-bergmann.de",
                "role": "lead"
            }
        ],
        "description": "Library that provides collection, processing, and rendering functionality for PHP code coverage information.",
        "homepage": "https://github.com/sebastianbergmann/php-code-coverage",
        "keywords": [
            "coverage",
            "testing",
            "xunit"
        ]
    },
    {
        "name": "phpunit/php-file-iterator",
        "version": "1.4.5",
        "version_normalized": "1.4.5.0",
        "source": {
            "type": "git",
            "url": "https://github.com/sebastianbergmann/php-file-iterator.git",
            "reference": "730b01bc3e867237eaac355e06a36b85dd93a8b4"
        },
        "dist": {
            "type": "zip",
            "url": "https://api.github.com/repos/sebastianbergmann/php-file-iterator/zipball/730b01bc3e867237eaac355e06a36b85dd93a8b4",
            "reference": "730b01bc3e867237eaac355e06a36b85dd93a8b4",
            "shasum": ""
        },
        "require": {
            "php": ">=5.3.3"
        },
        "time": "2017-11-27T13:52:08+00:00",
        "type": "library",
        "extra": {
            "branch-alias": {
                "dev-master": "1.4.x-dev"
            }
        },
        "installation-source": "dist",
        "autoload": {
            "classmap": [
                "src/"
            ]
        },
        "notification-url": "https://packagist.org/downloads/",
        "license": [
            "BSD-3-Clause"
        ],
        "authors": [
            {
                "name": "Sebastian Bergmann",
                "email": "sb@sebastian-bergmann.de",
                "role": "lead"
            }
        ],
        "description": "FilterIterator implementation that filters files based on a list of suffixes.",
        "homepage": "https://github.com/sebastianbergmann/php-file-iterator/",
        "keywords": [
            "filesystem",
            "iterator"
        ]
    },
    {
        "name": "phpunit/php-text-template",
        "version": "1.2.1",
        "version_normalized": "1.2.1.0",
        "source": {
            "type": "git",
            "url": "https://github.com/sebastianbergmann/php-text-template.git",
            "reference": "31f8b717e51d9a2afca6c9f046f5d69fc27c8686"
        },
        "dist": {
            "type": "zip",
            "url": "https://api.github.com/repos/sebastianbergmann/php-text-template/zipball/31f8b717e51d9a2afca6c9f046f5d69fc27c8686",
            "reference": "31f8b717e51d9a2afca6c9f046f5d69fc27c8686",
            "shasum": ""
        },
        "require": {
            "php": ">=5.3.3"
        },
        "time": "2015-06-21T13:50:34+00:00",
        "type": "library",
        "installation-source": "dist",
        "autoload": {
            "classmap": [
                "src/"
            ]
        },
        "notification-url": "https://packagist.org/downloads/",
        "license": [
            "BSD-3-Clause"
        ],
        "authors": [
            {
                "name": "Sebastian Bergmann",
                "email": "sebastian@phpunit.de",
                "role": "lead"
            }
        ],
        "description": "Simple template engine.",
        "homepage": "https://github.com/sebastianbergmann/php-text-template/",
        "keywords": [
            "template"
        ]
    },
    {
        "name": "phpunit/php-timer",
        "version": "1.0.9",
        "version_normalized": "1.0.9.0",
        "source": {
            "type": "git",
            "url": "https://github.com/sebastianbergmann/php-timer.git",
            "reference": "3dcf38ca72b158baf0bc245e9184d3fdffa9c46f"
        },
        "dist": {
            "type": "zip",
            "url": "https://api.github.com/repos/sebastianbergmann/php-timer/zipball/3dcf38ca72b158baf0bc245e9184d3fdffa9c46f",
            "reference": "3dcf38ca72b158baf0bc245e9184d3fdffa9c46f",
            "shasum": ""
        },
        "require": {
            "php": "^5.3.3 || ^7.0"
        },
        "require-dev": {
            "phpunit/phpunit": "^4.8.35 || ^5.7 || ^6.0"
        },
        "time": "2017-02-26T11:10:40+00:00",
        "type": "library",
        "extra": {
            "branch-alias": {
                "dev-master": "1.0-dev"
            }
        },
        "installation-source": "dist",
        "autoload": {
            "classmap": [
                "src/"
            ]
        },
        "notification-url": "https://packagist.org/downloads/",
        "license": [
            "BSD-3-Clause"
        ],
        "authors": [
            {
                "name": "Sebastian Bergmann",
                "email": "sb@sebastian-bergmann.de",
                "role": "lead"
            }
        ],
        "description": "Utility class for timing",
        "homepage": "https://github.com/sebastianbergmann/php-timer/",
        "keywords": [
            "timer"
        ]
    },
    {
        "name": "phpunit/php-token-stream",
        "version": "2.0.2",
        "version_normalized": "2.0.2.0",
        "source": {
            "type": "git",
            "url": "https://github.com/sebastianbergmann/php-token-stream.git",
            "reference": "791198a2c6254db10131eecfe8c06670700904db"
        },
        "dist": {
            "type": "zip",
            "url": "https://api.github.com/repos/sebastianbergmann/php-token-stream/zipball/791198a2c6254db10131eecfe8c06670700904db",
            "reference": "791198a2c6254db10131eecfe8c06670700904db",
            "shasum": ""
        },
        "require": {
            "ext-tokenizer": "*",
            "php": "^7.0"
        },
        "require-dev": {
            "phpunit/phpunit": "^6.2.4"
        },
        "time": "2017-11-27T05:48:46+00:00",
        "type": "library",
        "extra": {
            "branch-alias": {
                "dev-master": "2.0-dev"
            }
        },
        "installation-source": "dist",
        "autoload": {
            "classmap": [
                "src/"
            ]
        },
        "notification-url": "https://packagist.org/downloads/",
        "license": [
            "BSD-3-Clause"
        ],
        "authors": [
            {
                "name": "Sebastian Bergmann",
                "email": "sebastian@phpunit.de"
            }
        ],
        "description": "Wrapper around PHP's tokenizer extension.",
        "homepage": "https://github.com/sebastianbergmann/php-token-stream/",
        "keywords": [
            "tokenizer"
        ]
    },
    {
        "name": "phpunit/phpunit",
        "version": "5.7.27",
        "version_normalized": "5.7.27.0",
        "source": {
            "type": "git",
            "url": "https://github.com/sebastianbergmann/phpunit.git",
            "reference": "b7803aeca3ccb99ad0a506fa80b64cd6a56bbc0c"
        },
        "dist": {
            "type": "zip",
            "url": "https://api.github.com/repos/sebastianbergmann/phpunit/zipball/b7803aeca3ccb99ad0a506fa80b64cd6a56bbc0c",
            "reference": "b7803aeca3ccb99ad0a506fa80b64cd6a56bbc0c",
            "shasum": ""
        },
        "require": {
            "ext-dom": "*",
            "ext-json": "*",
            "ext-libxml": "*",
            "ext-mbstring": "*",
            "ext-xml": "*",
            "myclabs/deep-copy": "~1.3",
            "php": "^5.6 || ^7.0",
            "phpspec/prophecy": "^1.6.2",
            "phpunit/php-code-coverage": "^4.0.4",
            "phpunit/php-file-iterator": "~1.4",
            "phpunit/php-text-template": "~1.2",
            "phpunit/php-timer": "^1.0.6",
            "phpunit/phpunit-mock-objects": "^3.2",
            "sebastian/comparator": "^1.2.4",
            "sebastian/diff": "^1.4.3",
            "sebastian/environment": "^1.3.4 || ^2.0",
            "sebastian/exporter": "~2.0",
            "sebastian/global-state": "^1.1",
            "sebastian/object-enumerator": "~2.0",
            "sebastian/resource-operations": "~1.0",
            "sebastian/version": "^1.0.6|^2.0.1",
            "symfony/yaml": "~2.1|~3.0|~4.0"
        },
        "conflict": {
            "phpdocumentor/reflection-docblock": "3.0.2"
        },
        "require-dev": {
            "ext-pdo": "*"
        },
        "suggest": {
            "ext-xdebug": "*",
            "phpunit/php-invoker": "~1.1"
        },
        "time": "2018-02-01T05:50:59+00:00",
        "bin": [
            "phpunit"
        ],
        "type": "library",
        "extra": {
            "branch-alias": {
                "dev-master": "5.7.x-dev"
            }
        },
        "installation-source": "dist",
        "autoload": {
            "classmap": [
                "src/"
            ]
        },
        "notification-url": "https://packagist.org/downloads/",
        "license": [
            "BSD-3-Clause"
        ],
        "authors": [
            {
                "name": "Sebastian Bergmann",
                "email": "sebastian@phpunit.de",
                "role": "lead"
            }
        ],
        "description": "The PHP Unit Testing framework.",
        "homepage": "https://phpunit.de/",
        "keywords": [
            "phpunit",
            "testing",
            "xunit"
        ]
    },
    {
        "name": "phpunit/phpunit-mock-objects",
        "version": "3.4.4",
        "version_normalized": "3.4.4.0",
        "source": {
            "type": "git",
            "url": "https://github.com/sebastianbergmann/phpunit-mock-objects.git",
            "reference": "a23b761686d50a560cc56233b9ecf49597cc9118"
        },
        "dist": {
            "type": "zip",
            "url": "https://api.github.com/repos/sebastianbergmann/phpunit-mock-objects/zipball/a23b761686d50a560cc56233b9ecf49597cc9118",
            "reference": "a23b761686d50a560cc56233b9ecf49597cc9118",
            "shasum": ""
        },
        "require": {
            "doctrine/instantiator": "^1.0.2",
            "php": "^5.6 || ^7.0",
            "phpunit/php-text-template": "^1.2",
            "sebastian/exporter": "^1.2 || ^2.0"
        },
        "conflict": {
            "phpunit/phpunit": "<5.4.0"
        },
        "require-dev": {
            "phpunit/phpunit": "^5.4"
        },
        "suggest": {
            "ext-soap": "*"
        },
        "time": "2017-06-30T09:13:00+00:00",
        "type": "library",
        "extra": {
            "branch-alias": {
                "dev-master": "3.2.x-dev"
            }
        },
        "installation-source": "dist",
        "autoload": {
            "classmap": [
                "src/"
            ]
        },
        "notification-url": "https://packagist.org/downloads/",
        "license": [
            "BSD-3-Clause"
        ],
        "authors": [
            {
                "name": "Sebastian Bergmann",
                "email": "sb@sebastian-bergmann.de",
                "role": "lead"
            }
        ],
        "description": "Mock Object library for PHPUnit",
        "homepage": "https://github.com/sebastianbergmann/phpunit-mock-objects/",
        "keywords": [
            "mock",
            "xunit"
        ],
        "abandoned": true
    },
    {
        "name": "psr/log",
        "version": "1.1.2",
        "version_normalized": "1.1.2.0",
        "source": {
            "type": "git",
            "url": "https://github.com/php-fig/log.git",
            "reference": "446d54b4cb6bf489fc9d75f55843658e6f25d801"
        },
        "dist": {
            "type": "zip",
            "url": "https://api.github.com/repos/php-fig/log/zipball/446d54b4cb6bf489fc9d75f55843658e6f25d801",
            "reference": "446d54b4cb6bf489fc9d75f55843658e6f25d801",
            "shasum": ""
        },
        "require": {
            "php": ">=5.3.0"
        },
        "time": "2019-11-01T11:05:21+00:00",
        "type": "library",
        "extra": {
            "branch-alias": {
                "dev-master": "1.1.x-dev"
            }
        },
        "installation-source": "dist",
        "autoload": {
            "psr-4": {
                "Psr\\Log\\": "Psr/Log/"
            }
        },
        "notification-url": "https://packagist.org/downloads/",
        "license": [
            "MIT"
        ],
        "authors": [
            {
                "name": "PHP-FIG",
                "homepage": "http://www.php-fig.org/"
            }
        ],
        "description": "Common interface for logging libraries",
        "homepage": "https://github.com/php-fig/log",
        "keywords": [
            "log",
            "psr",
            "psr-3"
        ]
    },
    {
        "name": "pusher/pusher-php-server",
        "version": "v4.1.1",
        "version_normalized": "4.1.1.0",
        "source": {
            "type": "git",
            "url": "https://github.com/pusher/pusher-http-php.git",
            "reference": "3c05ef64839845b6114396ff8406712cba052750"
        },
        "dist": {
            "type": "zip",
            "url": "https://api.github.com/repos/pusher/pusher-http-php/zipball/3c05ef64839845b6114396ff8406712cba052750",
            "reference": "3c05ef64839845b6114396ff8406712cba052750",
            "shasum": ""
        },
        "require": {
            "ext-curl": "*",
            "paragonie/sodium_compat": "^1.6",
            "php": "^7.1",
            "psr/log": "^1.0"
        },
        "require-dev": {
            "phpunit/phpunit": "^7.2"
        },
        "time": "2019-12-03T13:29:13+00:00",
        "type": "library",
        "extra": {
            "branch-alias": {
                "dev-master": "3.4-dev"
            }
        },
        "installation-source": "dist",
        "autoload": {
            "psr-4": {
                "Pusher\\": "src/"
            }
        },
        "notification-url": "https://packagist.org/downloads/",
        "license": [
            "MIT"
        ],
        "description": "Library for interacting with the Pusher REST API",
        "keywords": [
            "events",
            "messaging",
            "php-pusher-server",
            "publish",
            "push",
            "pusher",
            "real time",
            "real-time",
            "realtime",
            "rest",
            "trigger"
        ]
    },
    {
        "name": "sebastian/code-unit-reverse-lookup",
        "version": "1.0.1",
        "version_normalized": "1.0.1.0",
        "source": {
            "type": "git",
            "url": "https://github.com/sebastianbergmann/code-unit-reverse-lookup.git",
            "reference": "4419fcdb5eabb9caa61a27c7a1db532a6b55dd18"
        },
        "dist": {
            "type": "zip",
            "url": "https://api.github.com/repos/sebastianbergmann/code-unit-reverse-lookup/zipball/4419fcdb5eabb9caa61a27c7a1db532a6b55dd18",
            "reference": "4419fcdb5eabb9caa61a27c7a1db532a6b55dd18",
            "shasum": ""
        },
        "require": {
            "php": "^5.6 || ^7.0"
        },
        "require-dev": {
            "phpunit/phpunit": "^5.7 || ^6.0"
        },
        "time": "2017-03-04T06:30:41+00:00",
        "type": "library",
        "extra": {
            "branch-alias": {
                "dev-master": "1.0.x-dev"
            }
        },
        "installation-source": "dist",
        "autoload": {
            "classmap": [
                "src/"
            ]
        },
        "notification-url": "https://packagist.org/downloads/",
        "license": [
            "BSD-3-Clause"
        ],
        "authors": [
            {
                "name": "Sebastian Bergmann",
                "email": "sebastian@phpunit.de"
            }
        ],
        "description": "Looks up which function or method a line of code belongs to",
        "homepage": "https://github.com/sebastianbergmann/code-unit-reverse-lookup/"
    },
    {
        "name": "sebastian/comparator",
        "version": "1.2.4",
        "version_normalized": "1.2.4.0",
        "source": {
            "type": "git",
            "url": "https://github.com/sebastianbergmann/comparator.git",
            "reference": "2b7424b55f5047b47ac6e5ccb20b2aea4011d9be"
        },
        "dist": {
            "type": "zip",
            "url": "https://api.github.com/repos/sebastianbergmann/comparator/zipball/2b7424b55f5047b47ac6e5ccb20b2aea4011d9be",
            "reference": "2b7424b55f5047b47ac6e5ccb20b2aea4011d9be",
            "shasum": ""
        },
        "require": {
            "php": ">=5.3.3",
            "sebastian/diff": "~1.2",
            "sebastian/exporter": "~1.2 || ~2.0"
        },
        "require-dev": {
            "phpunit/phpunit": "~4.4"
        },
        "time": "2017-01-29T09:50:25+00:00",
        "type": "library",
        "extra": {
            "branch-alias": {
                "dev-master": "1.2.x-dev"
            }
        },
        "installation-source": "dist",
        "autoload": {
            "classmap": [
                "src/"
            ]
        },
        "notification-url": "https://packagist.org/downloads/",
        "license": [
            "BSD-3-Clause"
        ],
        "authors": [
            {
                "name": "Jeff Welch",
                "email": "whatthejeff@gmail.com"
            },
            {
                "name": "Volker Dusch",
                "email": "github@wallbash.com"
            },
            {
                "name": "Bernhard Schussek",
                "email": "bschussek@2bepublished.at"
            },
            {
                "name": "Sebastian Bergmann",
                "email": "sebastian@phpunit.de"
            }
        ],
        "description": "Provides the functionality to compare PHP values for equality",
        "homepage": "http://www.github.com/sebastianbergmann/comparator",
        "keywords": [
            "comparator",
            "compare",
            "equality"
        ]
    },
    {
        "name": "sebastian/diff",
        "version": "1.4.3",
        "version_normalized": "1.4.3.0",
        "source": {
            "type": "git",
            "url": "https://github.com/sebastianbergmann/diff.git",
            "reference": "7f066a26a962dbe58ddea9f72a4e82874a3975a4"
        },
        "dist": {
            "type": "zip",
            "url": "https://api.github.com/repos/sebastianbergmann/diff/zipball/7f066a26a962dbe58ddea9f72a4e82874a3975a4",
            "reference": "7f066a26a962dbe58ddea9f72a4e82874a3975a4",
            "shasum": ""
        },
        "require": {
            "php": "^5.3.3 || ^7.0"
        },
        "require-dev": {
            "phpunit/phpunit": "^4.8.35 || ^5.7 || ^6.0"
        },
        "time": "2017-05-22T07:24:03+00:00",
        "type": "library",
        "extra": {
            "branch-alias": {
                "dev-master": "1.4-dev"
            }
        },
        "installation-source": "dist",
        "autoload": {
            "classmap": [
                "src/"
            ]
        },
        "notification-url": "https://packagist.org/downloads/",
        "license": [
            "BSD-3-Clause"
        ],
        "authors": [
            {
                "name": "Kore Nordmann",
                "email": "mail@kore-nordmann.de"
            },
            {
                "name": "Sebastian Bergmann",
                "email": "sebastian@phpunit.de"
            }
        ],
        "description": "Diff implementation",
        "homepage": "https://github.com/sebastianbergmann/diff",
        "keywords": [
            "diff"
        ]
    },
    {
        "name": "sebastian/environment",
        "version": "2.0.0",
        "version_normalized": "2.0.0.0",
        "source": {
            "type": "git",
            "url": "https://github.com/sebastianbergmann/environment.git",
            "reference": "5795ffe5dc5b02460c3e34222fee8cbe245d8fac"
        },
        "dist": {
            "type": "zip",
            "url": "https://api.github.com/repos/sebastianbergmann/environment/zipball/5795ffe5dc5b02460c3e34222fee8cbe245d8fac",
            "reference": "5795ffe5dc5b02460c3e34222fee8cbe245d8fac",
            "shasum": ""
        },
        "require": {
            "php": "^5.6 || ^7.0"
        },
        "require-dev": {
            "phpunit/phpunit": "^5.0"
        },
        "time": "2016-11-26T07:53:53+00:00",
        "type": "library",
        "extra": {
            "branch-alias": {
                "dev-master": "2.0.x-dev"
            }
        },
        "installation-source": "dist",
        "autoload": {
            "classmap": [
                "src/"
            ]
        },
        "notification-url": "https://packagist.org/downloads/",
        "license": [
            "BSD-3-Clause"
        ],
        "authors": [
            {
                "name": "Sebastian Bergmann",
                "email": "sebastian@phpunit.de"
            }
        ],
        "description": "Provides functionality to handle HHVM/PHP environments",
        "homepage": "http://www.github.com/sebastianbergmann/environment",
        "keywords": [
            "Xdebug",
            "environment",
            "hhvm"
        ]
    },
    {
        "name": "sebastian/exporter",
        "version": "2.0.0",
        "version_normalized": "2.0.0.0",
        "source": {
            "type": "git",
            "url": "https://github.com/sebastianbergmann/exporter.git",
            "reference": "ce474bdd1a34744d7ac5d6aad3a46d48d9bac4c4"
        },
        "dist": {
            "type": "zip",
            "url": "https://api.github.com/repos/sebastianbergmann/exporter/zipball/ce474bdd1a34744d7ac5d6aad3a46d48d9bac4c4",
            "reference": "ce474bdd1a34744d7ac5d6aad3a46d48d9bac4c4",
            "shasum": ""
        },
        "require": {
            "php": ">=5.3.3",
            "sebastian/recursion-context": "~2.0"
        },
        "require-dev": {
            "ext-mbstring": "*",
            "phpunit/phpunit": "~4.4"
        },
        "time": "2016-11-19T08:54:04+00:00",
        "type": "library",
        "extra": {
            "branch-alias": {
                "dev-master": "2.0.x-dev"
            }
        },
        "installation-source": "dist",
        "autoload": {
            "classmap": [
                "src/"
            ]
        },
        "notification-url": "https://packagist.org/downloads/",
        "license": [
            "BSD-3-Clause"
        ],
        "authors": [
            {
                "name": "Jeff Welch",
                "email": "whatthejeff@gmail.com"
            },
            {
                "name": "Volker Dusch",
                "email": "github@wallbash.com"
            },
            {
                "name": "Bernhard Schussek",
                "email": "bschussek@2bepublished.at"
            },
            {
                "name": "Sebastian Bergmann",
                "email": "sebastian@phpunit.de"
            },
            {
                "name": "Adam Harvey",
                "email": "aharvey@php.net"
            }
        ],
        "description": "Provides the functionality to export PHP variables for visualization",
        "homepage": "http://www.github.com/sebastianbergmann/exporter",
        "keywords": [
            "export",
            "exporter"
        ]
    },
    {
        "name": "sebastian/global-state",
        "version": "1.1.1",
        "version_normalized": "1.1.1.0",
        "source": {
            "type": "git",
            "url": "https://github.com/sebastianbergmann/global-state.git",
            "reference": "bc37d50fea7d017d3d340f230811c9f1d7280af4"
        },
        "dist": {
            "type": "zip",
            "url": "https://api.github.com/repos/sebastianbergmann/global-state/zipball/bc37d50fea7d017d3d340f230811c9f1d7280af4",
            "reference": "bc37d50fea7d017d3d340f230811c9f1d7280af4",
            "shasum": ""
        },
        "require": {
            "php": ">=5.3.3"
        },
        "require-dev": {
            "phpunit/phpunit": "~4.2"
        },
        "suggest": {
            "ext-uopz": "*"
        },
        "time": "2015-10-12T03:26:01+00:00",
        "type": "library",
        "extra": {
            "branch-alias": {
                "dev-master": "1.0-dev"
            }
        },
        "installation-source": "dist",
        "autoload": {
            "classmap": [
                "src/"
            ]
        },
        "notification-url": "https://packagist.org/downloads/",
        "license": [
            "BSD-3-Clause"
        ],
        "authors": [
            {
                "name": "Sebastian Bergmann",
                "email": "sebastian@phpunit.de"
            }
        ],
        "description": "Snapshotting of global state",
        "homepage": "http://www.github.com/sebastianbergmann/global-state",
        "keywords": [
            "global state"
        ]
    },
    {
        "name": "sebastian/object-enumerator",
        "version": "2.0.1",
        "version_normalized": "2.0.1.0",
        "source": {
            "type": "git",
            "url": "https://github.com/sebastianbergmann/object-enumerator.git",
            "reference": "1311872ac850040a79c3c058bea3e22d0f09cbb7"
        },
        "dist": {
            "type": "zip",
            "url": "https://api.github.com/repos/sebastianbergmann/object-enumerator/zipball/1311872ac850040a79c3c058bea3e22d0f09cbb7",
            "reference": "1311872ac850040a79c3c058bea3e22d0f09cbb7",
            "shasum": ""
        },
        "require": {
            "php": ">=5.6",
            "sebastian/recursion-context": "~2.0"
        },
        "require-dev": {
            "phpunit/phpunit": "~5"
        },
        "time": "2017-02-18T15:18:39+00:00",
        "type": "library",
        "extra": {
            "branch-alias": {
                "dev-master": "2.0.x-dev"
            }
        },
        "installation-source": "dist",
        "autoload": {
            "classmap": [
                "src/"
            ]
        },
        "notification-url": "https://packagist.org/downloads/",
        "license": [
            "BSD-3-Clause"
        ],
        "authors": [
            {
                "name": "Sebastian Bergmann",
                "email": "sebastian@phpunit.de"
            }
        ],
        "description": "Traverses array structures and object graphs to enumerate all referenced objects",
        "homepage": "https://github.com/sebastianbergmann/object-enumerator/"
    },
    {
        "name": "sebastian/recursion-context",
        "version": "2.0.0",
        "version_normalized": "2.0.0.0",
        "source": {
            "type": "git",
            "url": "https://github.com/sebastianbergmann/recursion-context.git",
            "reference": "2c3ba150cbec723aa057506e73a8d33bdb286c9a"
        },
        "dist": {
            "type": "zip",
            "url": "https://api.github.com/repos/sebastianbergmann/recursion-context/zipball/2c3ba150cbec723aa057506e73a8d33bdb286c9a",
            "reference": "2c3ba150cbec723aa057506e73a8d33bdb286c9a",
            "shasum": ""
        },
        "require": {
            "php": ">=5.3.3"
        },
        "require-dev": {
            "phpunit/phpunit": "~4.4"
        },
        "time": "2016-11-19T07:33:16+00:00",
        "type": "library",
        "extra": {
            "branch-alias": {
                "dev-master": "2.0.x-dev"
            }
        },
        "installation-source": "dist",
        "autoload": {
            "classmap": [
                "src/"
            ]
        },
        "notification-url": "https://packagist.org/downloads/",
        "license": [
            "BSD-3-Clause"
        ],
        "authors": [
            {
                "name": "Jeff Welch",
                "email": "whatthejeff@gmail.com"
            },
            {
                "name": "Sebastian Bergmann",
                "email": "sebastian@phpunit.de"
            },
            {
                "name": "Adam Harvey",
                "email": "aharvey@php.net"
            }
        ],
        "description": "Provides functionality to recursively process PHP variables",
        "homepage": "http://www.github.com/sebastianbergmann/recursion-context"
    },
    {
        "name": "sebastian/resource-operations",
        "version": "1.0.0",
        "version_normalized": "1.0.0.0",
        "source": {
            "type": "git",
            "url": "https://github.com/sebastianbergmann/resource-operations.git",
            "reference": "ce990bb21759f94aeafd30209e8cfcdfa8bc3f52"
        },
        "dist": {
            "type": "zip",
            "url": "https://api.github.com/repos/sebastianbergmann/resource-operations/zipball/ce990bb21759f94aeafd30209e8cfcdfa8bc3f52",
            "reference": "ce990bb21759f94aeafd30209e8cfcdfa8bc3f52",
            "shasum": ""
        },
        "require": {
            "php": ">=5.6.0"
        },
        "time": "2015-07-28T20:34:47+00:00",
        "type": "library",
        "extra": {
            "branch-alias": {
                "dev-master": "1.0.x-dev"
            }
        },
        "installation-source": "dist",
        "autoload": {
            "classmap": [
                "src/"
            ]
        },
        "notification-url": "https://packagist.org/downloads/",
        "license": [
            "BSD-3-Clause"
        ],
        "authors": [
            {
                "name": "Sebastian Bergmann",
                "email": "sebastian@phpunit.de"
            }
        ],
        "description": "Provides a list of PHP built-in functions that operate on resources",
        "homepage": "https://www.github.com/sebastianbergmann/resource-operations"
    },
    {
        "name": "sebastian/version",
        "version": "2.0.1",
        "version_normalized": "2.0.1.0",
        "source": {
            "type": "git",
            "url": "https://github.com/sebastianbergmann/version.git",
            "reference": "99732be0ddb3361e16ad77b68ba41efc8e979019"
        },
        "dist": {
            "type": "zip",
            "url": "https://api.github.com/repos/sebastianbergmann/version/zipball/99732be0ddb3361e16ad77b68ba41efc8e979019",
            "reference": "99732be0ddb3361e16ad77b68ba41efc8e979019",
            "shasum": ""
        },
        "require": {
            "php": ">=5.6"
        },
        "time": "2016-10-03T07:35:21+00:00",
        "type": "library",
        "extra": {
            "branch-alias": {
                "dev-master": "2.0.x-dev"
            }
        },
        "installation-source": "dist",
        "autoload": {
            "classmap": [
                "src/"
            ]
        },
        "notification-url": "https://packagist.org/downloads/",
        "license": [
            "BSD-3-Clause"
        ],
        "authors": [
            {
                "name": "Sebastian Bergmann",
                "email": "sebastian@phpunit.de",
                "role": "lead"
            }
        ],
        "description": "Library that helps with managing the version number of Git-hosted PHP projects",
        "homepage": "https://github.com/sebastianbergmann/version"
    },
    {
        "name": "symfony/polyfill-ctype",
        "version": "v1.13.1",
        "version_normalized": "1.13.1.0",
        "source": {
            "type": "git",
            "url": "https://github.com/symfony/polyfill-ctype.git",
            "reference": "f8f0b461be3385e56d6de3dbb5a0df24c0c275e3"
        },
        "dist": {
            "type": "zip",
            "url": "https://api.github.com/repos/symfony/polyfill-ctype/zipball/f8f0b461be3385e56d6de3dbb5a0df24c0c275e3",
            "reference": "f8f0b461be3385e56d6de3dbb5a0df24c0c275e3",
            "shasum": ""
        },
        "require": {
            "php": ">=5.3.3"
        },
        "suggest": {
            "ext-ctype": "For best performance"
        },
        "time": "2019-11-27T13:56:44+00:00",
        "type": "library",
        "extra": {
            "branch-alias": {
                "dev-master": "1.13-dev"
            }
        },
        "installation-source": "dist",
        "autoload": {
            "psr-4": {
                "Symfony\\Polyfill\\Ctype\\": ""
            },
            "files": [
                "bootstrap.php"
            ]
        },
        "notification-url": "https://packagist.org/downloads/",
        "license": [
            "MIT"
        ],
        "authors": [
            {
                "name": "Gert de Pagter",
                "email": "BackEndTea@gmail.com"
            },
            {
                "name": "Symfony Community",
                "homepage": "https://symfony.com/contributors"
            }
        ],
        "description": "Symfony polyfill for ctype functions",
        "homepage": "https://symfony.com",
        "keywords": [
            "compatibility",
            "ctype",
            "polyfill",
            "portable"
        ]
    },
    {
        "name": "symfony/yaml",
        "version": "v4.4.1",
        "version_normalized": "4.4.1.0",
        "source": {
            "type": "git",
            "url": "https://github.com/symfony/yaml.git",
            "reference": "76de473358fe802578a415d5bb43c296cf09d211"
        },
        "dist": {
            "type": "zip",
            "url": "https://api.github.com/repos/symfony/yaml/zipball/76de473358fe802578a415d5bb43c296cf09d211",
            "reference": "76de473358fe802578a415d5bb43c296cf09d211",
            "shasum": ""
        },
        "require": {
            "php": "^7.1.3",
            "symfony/polyfill-ctype": "~1.8"
        },
        "conflict": {
            "symfony/console": "<3.4"
        },
        "require-dev": {
            "symfony/console": "^3.4|^4.0|^5.0"
        },
        "suggest": {
            "symfony/console": "For validating YAML files using the lint command"
        },
        "time": "2019-11-12T14:51:11+00:00",
        "type": "library",
        "extra": {
            "branch-alias": {
                "dev-master": "4.4-dev"
            }
        },
        "installation-source": "dist",
        "autoload": {
            "psr-4": {
                "Symfony\\Component\\Yaml\\": ""
            },
            "exclude-from-classmap": [
                "/Tests/"
            ]
        },
        "notification-url": "https://packagist.org/downloads/",
        "license": [
            "MIT"
        ],
        "authors": [
            {
                "name": "Fabien Potencier",
                "email": "fabien@symfony.com"
            },
            {
                "name": "Symfony Community",
                "homepage": "https://symfony.com/contributors"
            }
        ],
        "description": "Symfony Yaml Component",
        "homepage": "https://symfony.com"
    },
    {
        "name": "webmozart/assert",
        "version": "1.6.0",
        "version_normalized": "1.6.0.0",
        "source": {
            "type": "git",
            "url": "https://github.com/webmozart/assert.git",
            "reference": "573381c0a64f155a0d9a23f4b0c797194805b925"
        },
        "dist": {
            "type": "zip",
            "url": "https://api.github.com/repos/webmozart/assert/zipball/573381c0a64f155a0d9a23f4b0c797194805b925",
            "reference": "573381c0a64f155a0d9a23f4b0c797194805b925",
            "shasum": ""
        },
        "require": {
            "php": "^5.3.3 || ^7.0",
            "symfony/polyfill-ctype": "^1.8"
        },
        "conflict": {
            "vimeo/psalm": "<3.6.0"
        },
        "require-dev": {
            "phpunit/phpunit": "^4.8.36 || ^7.5.13"
        },
        "time": "2019-11-24T13:36:37+00:00",
        "type": "library",
        "installation-source": "dist",
        "autoload": {
            "psr-4": {
                "Webmozart\\Assert\\": "src/"
            }
        },
        "notification-url": "https://packagist.org/downloads/",
        "license": [
            "MIT"
        ],
        "authors": [
            {
                "name": "Bernhard Schussek",
                "email": "bschussek@gmail.com"
            }
        ],
        "description": "Assertions to validate method input/output with nice error messages.",
        "keywords": [
            "assert",
            "check",
            "validate"
        ]
    }
]
